# jogo de computador HotNumber "escolhe" um número de 0 a 100

# Dados:
# diferenca para o nr > 25 = Pista Frio
# diferenca para o nr >5 e <25 = Pista Morno
# diferenca para o nr < 5 = Pista Quente


ED: numeroaleatorio , numeroescolhido , resultado, tentativas , jogadores Int

Inicio

	#MiguelB

	
	Escrever('Qual o número de tentativas?')
	Ler(tentativas)
	
	Escrever('Qual o número de Jogadores?')
	Ler(jogadores)
	
	Para i <- 1 até jogadores passo 1 fazer
	
				numeroaleatorio <- random(1,100)
	
				Escrever('Escolha um número de 0 e 100!')
				Ler(numeroescolhido)
				
				#RuiF

				Para I <- 1 até tentativas Passo 1 Fazer
					resultado <- numeroaleatorio-numeroescolhido
				
								resultado <- numeroaleatorio-numeroescolhido

								se resultado < 0 então
									resultado <- resultado * -1
								senão
									resultado <- resultado
								fimse

								selecionar resultado

									Caso > 25 
										Escrever ("Frio")
									Caso > 5 e < 25 
										Escrever ("Frio")
									Caso < 5
										Escrever ("Quente")

								FimSelecionar
				
				FimPara
				
	FimPara
Fim
